<svg width="14" height="14" viewBox="0 0 14 14" fill="none" xmlns="http://www.w3.org/2000/svg">
<path fill-rule="evenodd" clip-rule="evenodd" d="M6.99995 12.0208L3.58069 13.8993C3.17146 14.1242 2.66529 13.9597 2.45014 13.5321C2.36447 13.3618 2.3349 13.1667 2.36603 12.9771L3.01904 8.99833L0.252811 6.18055C-0.0782694 5.8433 -0.085044 5.28944 0.23768 4.94345C0.36619 4.80568 0.534577 4.71602 0.716772 4.68835L4.53961 4.10786L6.24924 0.487858C6.45386 0.0545928 6.95584 -0.123295 7.37044 0.090534C7.53554 0.175682 7.66917 0.315329 7.75065 0.487858L9.46028 4.10786L13.2831 4.68835C13.7407 4.75783 14.0577 5.20176 13.9912 5.6799C13.9647 5.87029 13.8789 6.04626 13.7471 6.18055L10.9808 8.99833L11.6339 12.9771C11.712 13.4533 11.406 13.9056 10.9503 13.9872C10.7688 14.0198 10.5822 13.9889 10.4192 13.8993L6.99995 12.0208Z" fill="#FFCD4E"/>
</svg>
