<svg width="130" height="18" viewBox="0 0 130 18" fill="none" xmlns="http://www.w3.org/2000/svg">
<path fill-rule="evenodd" clip-rule="evenodd" d="M18.1214 4.44282L14.792 0.973315C13.5466 -0.324438 11.5388 -0.324438 10.3061 0.973315L15.0715 5.93921L18.1214 4.44282ZM5.22293 10.1635C4.96878 10.1635 4.6892 10.0973 4.43505 9.99135C4.06652 9.83244 3.74882 9.55435 3.53279 9.19681C3.30405 8.85251 3.18967 8.44199 3.17697 7.97851C3.17697 7.67393 3.24051 7.39584 3.34217 7.131C3.49466 6.74697 3.77424 6.40267 4.10464 6.1643C4.43505 5.92594 4.8417 5.79352 5.27377 5.79352C5.56605 5.79352 5.83291 5.85973 6.08707 5.96567C6.32635 6.07065 6.54067 6.21466 6.71766 6.39768L6.72246 6.40267L9.0353 8.8128C9.04474 8.80788 9.05418 8.80113 9.06427 8.79392L9.06428 8.79391L9.06432 8.79388L9.06434 8.79387C9.0814 8.78167 9.10032 8.76814 9.12425 8.75983L12.0852 7.30317L8.97176 4.05877L8.9641 4.0508L8.85739 3.93961L8.85534 3.94174C8.65795 3.75015 8.44438 3.57542 8.22199 3.40989C7.38327 2.81398 6.35393 2.46968 5.27377 2.46968C4.54942 2.46968 3.85048 2.62859 3.21509 2.90668C2.262 3.33044 1.4614 4.01904 0.902259 4.89304C0.330405 5.76703 0 6.83966 0 7.96527C0 8.72008 0.152494 9.44841 0.41936 10.1105C0.826011 11.1037 1.4614 11.938 2.30012 12.5206C3.13883 13.1165 4.20628 13.4608 5.2229 13.4609V13.4741C5.23597 13.4741 5.25531 13.4747 5.28085 13.4754C5.71359 13.4885 7.9291 13.5552 11.7019 11.7546C11.7324 11.7417 11.7628 11.7278 11.7929 11.7129L11.9748 11.6224L12.0597 11.5804L12.0596 11.5802L12.6444 11.2891L16.416 9.43255L16.4186 9.4352L20.7129 7.33759C21.7423 6.91133 23.3399 6.36902 24.8403 6.35021C25.0841 6.35636 25.3487 6.42117 25.5903 6.52188C25.9589 6.68079 26.2766 6.95888 26.4926 7.31643C26.7213 7.66073 26.8357 8.07124 26.8357 8.53472C26.8357 8.8393 26.7722 9.11739 26.6705 9.38224C26.518 9.76626 26.2384 10.1106 25.908 10.3489C25.7093 10.4923 25.4876 10.5973 25.2457 10.6583C25.1815 10.6554 25.1102 10.6622 25.0312 10.68C24.9491 10.6984 24.8589 10.7114 24.7624 10.7196L24.7389 10.7197C24.4466 10.7197 24.1798 10.6535 23.9256 10.5476C23.7388 10.4656 23.5672 10.3599 23.4167 10.2304L23.4173 10.2297L20.9647 7.66072L17.9021 9.15711L21.0471 12.4216L21.0409 12.428C21.2697 12.6663 21.5238 12.8782 21.7907 13.0769C22.6294 13.6728 23.646 14.0171 24.7389 14.0171C25.4633 14.0171 26.1622 13.8582 26.7849 13.5801C27.738 13.1563 28.5386 12.4677 29.0977 11.5937C29.6696 10.7197 30 9.66033 30 8.52148C30 7.76667 29.8475 7.03834 29.5806 6.38946C29.174 5.39628 28.5386 4.56201 27.6998 3.97935C26.9004 3.41134 25.8931 3.07193 24.9201 3.04139V3.03912C24.9071 3.03912 24.8877 3.03853 24.8622 3.03776C24.4936 3.02663 22.8322 2.97645 20.0002 4.08242C19.8374 4.10582 19.6753 4.15474 19.5193 4.23095L18.6552 4.6547L18.4676 4.74656C18.3413 4.80652 18.2132 4.86857 18.0833 4.93278L18.0841 4.93435L14.0041 6.93239L14.0231 6.95208L10.536 8.66947L10.5348 8.66711C10.5348 8.66711 7.71367 10.1635 5.22293 10.1635ZM12.8603 11.7129L15.2875 10.5211L20.0784 15.5267C18.8457 16.8244 16.8379 16.8244 15.5925 15.5267L12.2249 12.0174L12.8603 11.7129Z" fill="#186FDA"/>
<path fill-rule="evenodd" clip-rule="evenodd" d="M42.2071 14.5658C43.1357 14.8313 44.0857 14.9641 45.0571 14.9641C47.0572 14.9641 48.5679 14.4474 49.5893 13.4139C50.6107 12.3804 51.1214 10.9306 51.1214 9.06459C51.1214 7.45693 50.6857 6.20814 49.8143 5.31818C48.9429 4.42823 47.7 3.98325 46.0857 3.98325C45.4 3.98325 44.7571 4.06938 44.1571 4.24163C43.5571 4.41388 43.0714 4.66507 42.7 4.99522V0.796651C42.7 0.523922 42.6357 0.322967 42.5071 0.19378C42.3786 0.0645927 42.1714 0 41.8857 0H40.7929C40.5071 0 40.3036 0.0645927 40.1821 0.19378C40.0607 0.322967 40 0.523922 40 0.796651V13.5646C40.5429 13.9665 41.2786 14.3002 42.2071 14.5658ZM47.5536 12.0467C46.9893 12.6854 46.1143 13.0048 44.9286 13.0048C44.5143 13.0048 44.1 12.9581 43.6857 12.8648C43.2714 12.7715 42.9428 12.6459 42.7 12.488V8.11723C42.7 7.41388 42.9786 6.8792 43.5357 6.51317C44.0928 6.14713 44.7357 5.96412 45.4643 5.96412C46.5214 5.96412 47.275 6.2189 47.725 6.72848C48.175 7.23805 48.4 8.03828 48.4 9.12919C48.4 10.4354 48.1178 11.4079 47.5536 12.0467ZM58.6 14.9641C56.7429 14.9641 55.3107 14.4725 54.3036 13.4892C53.2964 12.506 52.7929 11.1675 52.7929 9.47369C52.7929 7.7799 53.2964 6.44139 54.3036 5.45814C55.3107 4.47488 56.7429 3.98325 58.6 3.98325C60.4572 3.98325 61.8929 4.47488 62.9072 5.45814C63.9214 6.44139 64.4286 7.7799 64.4286 9.47369C64.4286 11.1675 63.9214 12.506 62.9072 13.4892C61.8929 14.4725 60.4572 14.9641 58.6 14.9641ZM60.9143 12.0574C60.3857 12.646 59.6143 12.9402 58.6 12.9402C57.6 12.9402 56.8321 12.6424 56.2964 12.0467C55.7607 11.451 55.4929 10.5933 55.4929 9.47371C55.4929 8.35409 55.7607 7.50362 56.2964 6.92228C56.8321 6.34093 57.6 6.05027 58.6 6.05027C59.6143 6.05027 60.3857 6.34093 60.9143 6.92228C61.4429 7.50362 61.7071 8.35409 61.7071 9.47371C61.7071 10.6077 61.4429 11.4689 60.9143 12.0574ZM72.1857 14.9641C68.1286 14.9641 66.1 13.1268 66.1 9.45215C66.1 8.37559 66.3072 7.42465 66.7215 6.59928C67.1357 5.77392 67.7322 5.13158 68.5107 4.67225C69.2893 4.21292 70.2072 3.98325 71.2643 3.98325C72.7643 3.98325 73.85 4.32057 74.5215 4.99522V0.796651C74.5215 0.523922 74.5857 0.322967 74.7143 0.19378C74.8429 0.0645927 75.05 0 75.3357 0H76.4072C76.6929 0 76.9 0.0645927 77.0286 0.19378C77.1572 0.322967 77.2215 0.523922 77.2215 0.796651V13.5646C76.6786 13.9665 75.95 14.3002 75.0357 14.5658C74.1214 14.8313 73.1715 14.9641 72.1857 14.9641ZM74.5214 12.488C73.9643 12.8325 73.2072 13.0048 72.25 13.0048C71.0929 13.0048 70.2286 12.7321 69.6572 12.1866C69.0857 11.6412 68.8 10.7512 68.8 9.51675C68.8 8.41149 69.0572 7.54307 69.5714 6.91149C70.0857 6.27991 70.8643 5.96412 71.9072 5.96412C72.6786 5.96412 73.3072 6.14355 73.7929 6.5024C74.2786 6.86125 74.5214 7.39235 74.5214 8.0957V12.488ZM82.2357 18C81.6929 18 81.1929 17.9211 80.7357 17.7632C80.2786 17.6053 79.8857 17.39 79.5572 17.1172C79.4429 17.0167 79.3857 16.9234 79.3857 16.8373C79.3857 16.7512 79.4143 16.6722 79.4714 16.6005L80.0714 15.567C80.1572 15.4234 80.2429 15.3517 80.3286 15.3517C80.4 15.3517 80.4857 15.3947 80.5857 15.4809C80.8143 15.6531 81.0464 15.7823 81.2822 15.8684C81.5179 15.9545 81.8 15.9976 82.1286 15.9976C82.5572 15.9976 82.8929 15.8577 83.1357 15.5778C83.3786 15.2978 83.6286 14.8278 83.8857 14.1675L79.5572 4.90909C79.5 4.76555 79.4714 4.66507 79.4714 4.60766C79.4714 4.4067 79.5857 4.30622 79.8143 4.30622H81.6357C81.8214 4.30622 81.9572 4.33493 82.0429 4.39234C82.1286 4.44976 82.2072 4.55742 82.2786 4.71531L85.15 11.4761L88.0214 4.71531C88.0929 4.55742 88.1714 4.44976 88.2572 4.39234C88.3429 4.33493 88.4786 4.30622 88.6643 4.30622H90.4857C90.7143 4.30622 90.8286 4.4067 90.8286 4.60766C90.8286 4.66507 90.8 4.76555 90.7429 4.90909L86.7143 13.5431C86.1572 14.7201 85.6893 15.61 85.3107 16.2129C84.9322 16.8158 84.5036 17.2644 84.025 17.5586C83.5464 17.8529 82.95 18 82.2357 18ZM95.2429 14.5443C95.3286 14.6089 95.4572 14.6411 95.6286 14.6411H96.85C97.0072 14.6411 97.125 14.6089 97.2036 14.5443C97.2822 14.4797 97.3572 14.3612 97.4286 14.189L99.5715 8.39713L101.714 14.189C101.786 14.3612 101.857 14.4797 101.929 14.5443C102 14.6089 102.114 14.6411 102.271 14.6411H103.514C103.686 14.6411 103.811 14.6124 103.889 14.555C103.968 14.4976 104.036 14.3756 104.093 14.189L107.029 4.75837C107.043 4.71531 107.05 4.6579 107.05 4.58612C107.05 4.39952 106.936 4.30622 106.707 4.30622H105.057C104.871 4.30622 104.75 4.33493 104.693 4.39234C104.636 4.44976 104.586 4.55024 104.543 4.69378L102.657 11.2823L100.557 5.61962C100.5 5.46172 100.439 5.35407 100.375 5.29665C100.311 5.23923 100.2 5.21053 100.043 5.21053H99.1215C98.9643 5.21053 98.85 5.24282 98.7786 5.30742C98.7072 5.37201 98.6429 5.47608 98.5858 5.61962L96.4643 11.2823L94.6 4.69378C94.5715 4.55024 94.5215 4.44976 94.45 4.39234C94.3786 4.33493 94.2572 4.30622 94.0858 4.30622H92.4358C92.2072 4.30622 92.0929 4.39952 92.0929 4.58612C92.0929 4.6579 92.1 4.71531 92.1143 4.75837L95.0286 14.189C95.0858 14.3612 95.1572 14.4797 95.2429 14.5443ZM114.721 14.9641C113.607 14.9641 112.6 14.7739 111.7 14.3935C110.8 14.0132 110.082 13.4246 109.546 12.628C109.011 11.8313 108.743 10.8373 108.743 9.64594C108.743 7.79425 109.236 6.38757 110.221 5.42584C111.207 4.46411 112.607 3.98325 114.421 3.98325C116.221 3.98325 117.582 4.44976 118.504 5.38278C119.425 6.3158 119.886 7.66506 119.886 9.43062C119.886 9.93302 119.657 10.1842 119.2 10.1842H111.336C111.336 11.1316 111.664 11.86 112.321 12.3696C112.979 12.8792 113.893 13.134 115.064 13.134C116.193 13.134 117.207 12.8756 118.107 12.3589C118.207 12.3014 118.286 12.2727 118.343 12.2727C118.443 12.2727 118.521 12.3373 118.579 12.4665L119.093 13.3923C119.136 13.4785 119.157 13.5574 119.157 13.6292C119.157 13.7297 119.093 13.823 118.964 13.9091C118.379 14.2679 117.746 14.5335 117.068 14.7057C116.389 14.878 115.607 14.9641 114.721 14.9641ZM116.661 6.50241C117.154 7.00481 117.4 7.70097 117.4 8.59093H111.336C111.336 7.72968 111.604 7.04069 112.139 6.52394C112.675 6.00719 113.443 5.74882 114.443 5.74882C115.429 5.74882 116.168 6.00002 116.661 6.50241ZM122.779 14.6411C122.493 14.6411 122.289 14.5766 122.168 14.4474C122.046 14.3182 121.986 14.1244 121.986 13.866V0.796651C121.986 0.523922 122.046 0.322967 122.168 0.19378C122.289 0.0645927 122.493 0 122.779 0H123.914C124.2 0 124.407 0.0645927 124.536 0.19378C124.664 0.322967 124.729 0.523922 124.729 0.796651V13.866C124.729 14.1244 124.668 14.3182 124.546 14.4474C124.425 14.5766 124.214 14.6411 123.914 14.6411H122.779ZM127.439 14.4474C127.561 14.5766 127.764 14.6411 128.05 14.6411H129.186C129.486 14.6411 129.696 14.5766 129.818 14.4474C129.939 14.3182 130 14.1244 130 13.866V0.796651C130 0.523922 129.936 0.322967 129.807 0.19378C129.679 0.0645927 129.471 0 129.186 0H128.05C127.764 0 127.561 0.0645927 127.439 0.19378C127.318 0.322967 127.257 0.523922 127.257 0.796651V13.866C127.257 14.1244 127.318 14.3182 127.439 14.4474Z" fill="#186FDA"/>
</svg>
