<svg width="90" height="18" viewBox="0 0 90 18" fill="none" xmlns="http://www.w3.org/2000/svg">
<path fill-rule="evenodd" clip-rule="evenodd" d="M2.20714 14.5658C3.13572 14.8313 4.08571 14.9641 5.05714 14.9641C7.05716 14.9641 8.56785 14.4474 9.58929 13.4139C10.6107 12.3804 11.1214 10.9306 11.1214 9.0646C11.1214 7.45693 10.6857 6.20814 9.81429 5.31818C8.94286 4.42823 7.70001 3.98326 6.08572 3.98326C5.4 3.98326 4.75715 4.06938 4.15714 4.24163C3.55714 4.41388 3.07143 4.66507 2.7 4.99522V0.796651C2.7 0.523922 2.63572 0.322967 2.50714 0.19378C2.37857 0.0645927 2.17143 0 1.88571 0H0.792857C0.507142 0 0.303572 0.0645927 0.182143 0.19378C0.0607137 0.322967 0 0.523922 0 0.796651V13.5646C0.54286 13.9665 1.27857 14.3002 2.20714 14.5658ZM7.55362 12.0466C6.98933 12.6854 6.11434 13.0048 4.92862 13.0048C4.51433 13.0048 4.10005 12.9581 3.68576 12.8648C3.27148 12.7715 2.94291 12.6459 2.70005 12.488V8.1172C2.70005 7.41385 2.97862 6.87916 3.53576 6.51313C4.09291 6.1471 4.73576 5.96409 5.46434 5.96409C6.52148 5.96409 7.27505 6.21887 7.72505 6.72844C8.17505 7.23802 8.40005 8.03825 8.40005 9.12916C8.40005 10.4354 8.11791 11.4079 7.55362 12.0466ZM18.6 14.9641C16.7429 14.9641 15.3107 14.4725 14.3036 13.4892C13.2964 12.506 12.7929 11.1675 12.7929 9.47369C12.7929 7.7799 13.2964 6.44139 14.3036 5.45813C15.3107 4.47488 16.7429 3.98325 18.6 3.98325C20.4572 3.98325 21.8929 4.47488 22.9072 5.45813C23.9215 6.44139 24.4286 7.7799 24.4286 9.47369C24.4286 11.1675 23.9215 12.506 22.9072 13.4892C21.8929 14.4725 20.4572 14.9641 18.6 14.9641ZM20.9143 12.0575C20.3857 12.646 19.6143 12.9403 18.6 12.9403C17.6 12.9403 16.8321 12.6424 16.2964 12.0467C15.7607 11.4511 15.4929 10.5934 15.4929 9.47378C15.4929 8.35416 15.7607 7.50369 16.2964 6.92234C16.8321 6.341 17.6 6.05033 18.6 6.05033C19.6143 6.05033 20.3857 6.341 20.9143 6.92234C21.4429 7.50369 21.7071 8.35416 21.7071 9.47378C21.7071 10.6078 21.4429 11.469 20.9143 12.0575ZM32.1858 14.9641C28.1286 14.9641 26.1001 13.1268 26.1001 9.45216C26.1001 8.3756 26.3072 7.42465 26.7215 6.59929C27.1358 5.77392 27.7322 5.13158 28.5108 4.67225C29.2894 4.21292 30.2072 3.98326 31.2644 3.98326C32.7644 3.98326 33.8501 4.32057 34.5215 4.99522V0.796651C34.5215 0.523922 34.5858 0.322967 34.7144 0.19378C34.8429 0.0645927 35.0501 0 35.3358 0H36.4072C36.6929 0 36.9001 0.0645927 37.0287 0.19378C37.1572 0.322967 37.2215 0.523922 37.2215 0.796651V13.5646C36.6787 13.9665 35.9501 14.3002 35.0358 14.5658C34.1215 14.8313 33.1715 14.9641 32.1858 14.9641ZM34.5214 12.488C33.9643 12.8325 33.2071 13.0048 32.25 13.0048C31.0928 13.0048 30.2286 12.732 29.6571 12.1866C29.0857 11.6411 28.8 10.7512 28.8 9.51672C28.8 8.41145 29.0571 7.54304 29.5714 6.91146C30.0857 6.27988 30.8643 5.96409 31.9071 5.96409C32.6786 5.96409 33.3071 6.14351 33.7928 6.50237C34.2786 6.86122 34.5214 7.39232 34.5214 8.09567V12.488ZM42.2358 18C41.6929 18 41.1929 17.9211 40.7358 17.7632C40.2786 17.6053 39.8858 17.39 39.5572 17.1173C39.4429 17.0168 39.3858 16.9235 39.3858 16.8374C39.3858 16.7512 39.4144 16.6723 39.4715 16.6005L40.0715 15.567C40.1572 15.4235 40.2429 15.3517 40.3286 15.3517C40.4001 15.3517 40.4858 15.3948 40.5858 15.4809C40.8144 15.6531 41.0465 15.7823 41.2822 15.8685C41.5179 15.9546 41.8001 15.9976 42.1286 15.9976C42.5572 15.9976 42.8929 15.8577 43.1358 15.5778C43.3786 15.2979 43.6286 14.8278 43.8858 14.1675L39.5572 4.90912C39.5001 4.76558 39.4715 4.6651 39.4715 4.60769C39.4715 4.40673 39.5858 4.30625 39.8144 4.30625H41.6358C41.8215 4.30625 41.9572 4.33496 42.0429 4.39238C42.1286 4.44979 42.2072 4.55745 42.2786 4.71534L45.1501 11.4761L48.0215 4.71534C48.0929 4.55745 48.1715 4.44979 48.2572 4.39238C48.3429 4.33496 48.4786 4.30625 48.6644 4.30625H50.4858C50.7144 4.30625 50.8286 4.40673 50.8286 4.60769C50.8286 4.6651 50.8001 4.76558 50.7429 4.90912L46.7144 13.5431C46.1572 14.7201 45.6894 15.6101 45.3108 16.213C44.9322 16.8158 44.5036 17.2644 44.0251 17.5586C43.5465 17.8529 42.9501 18 42.2358 18ZM55.2429 14.5443C55.3286 14.6089 55.4572 14.6412 55.6286 14.6412H56.85C57.0072 14.6412 57.125 14.6089 57.2036 14.5443C57.2822 14.4797 57.3572 14.3613 57.4286 14.189L59.5715 8.39716L61.7143 14.189C61.7858 14.3613 61.8572 14.4797 61.9286 14.5443C62 14.6089 62.1143 14.6412 62.2715 14.6412H63.5143C63.6858 14.6412 63.8108 14.6125 63.8893 14.5551C63.9679 14.4976 64.0358 14.3756 64.0929 14.189L67.0286 4.75841C67.0429 4.71534 67.05 4.65793 67.05 4.58616C67.05 4.39955 66.9358 4.30625 66.7072 4.30625H65.0572C64.8715 4.30625 64.75 4.33496 64.6929 4.39238C64.6358 4.44979 64.5858 4.55027 64.5429 4.69381L62.6572 11.2823L60.5572 5.61965C60.5 5.46175 60.4393 5.3541 60.375 5.29668C60.3108 5.23927 60.2 5.21056 60.0429 5.21056H59.1215C58.9643 5.21056 58.85 5.24286 58.7786 5.30745C58.7072 5.37204 58.6429 5.47611 58.5858 5.61965L56.4643 11.2823L54.6 4.69381C54.5715 4.55027 54.5215 4.44979 54.45 4.39238C54.3786 4.33496 54.2572 4.30625 54.0858 4.30625H52.4358C52.2072 4.30625 52.0929 4.39955 52.0929 4.58616C52.0929 4.65793 52.1 4.71534 52.1143 4.75841L55.0286 14.189C55.0858 14.3613 55.1572 14.4797 55.2429 14.5443ZM74.7214 14.9641C73.6071 14.9641 72.6 14.7739 71.7 14.3935C70.8 14.0132 70.0821 13.4247 69.5464 12.628C69.0107 11.8313 68.7428 10.8373 68.7428 9.64594C68.7428 7.79425 69.2357 6.38757 70.2214 5.42584C71.2071 4.46411 72.6071 3.98325 74.4214 3.98325C76.2214 3.98325 77.5821 4.44976 78.5036 5.38278C79.425 6.31579 79.8857 7.66506 79.8857 9.43062C79.8857 9.93302 79.6571 10.1842 79.2 10.1842H71.3357C71.3357 11.1316 71.6643 11.86 72.3214 12.3696C72.9786 12.8792 73.8928 13.134 75.0643 13.134C76.1929 13.134 77.2071 12.8756 78.1071 12.3589C78.2071 12.3014 78.2857 12.2727 78.3428 12.2727C78.4428 12.2727 78.5214 12.3373 78.5786 12.4665L79.0928 13.3923C79.1357 13.4785 79.1571 13.5574 79.1571 13.6292C79.1571 13.7297 79.0928 13.823 78.9643 13.9091C78.3786 14.2679 77.7464 14.5335 77.0678 14.7057C76.3893 14.878 75.6071 14.9641 74.7214 14.9641ZM76.6607 6.5025C77.1536 7.0049 77.4 7.70106 77.4 8.59102H71.3357C71.3357 7.72977 71.6036 7.04078 72.1393 6.52403C72.675 6.00729 73.4428 5.74891 74.4428 5.74891C75.4286 5.74891 76.1678 6.00011 76.6607 6.5025ZM82.7786 14.6412C82.4929 14.6412 82.2894 14.5766 82.1679 14.4474C82.0465 14.3182 81.9858 14.1244 81.9858 13.866V0.796651C81.9858 0.523922 82.0465 0.322967 82.1679 0.19378C82.2894 0.0645927 82.4929 0 82.7786 0H83.9144C84.2001 0 84.4072 0.0645927 84.5358 0.19378C84.6644 0.322967 84.7286 0.523922 84.7286 0.796651V13.866C84.7286 14.1244 84.6679 14.3182 84.5465 14.4474C84.4251 14.5766 84.2144 14.6412 83.9144 14.6412H82.7786ZM87.4393 14.4474C87.5608 14.5766 87.7643 14.6412 88.05 14.6412H89.1858C89.4858 14.6412 89.6965 14.5766 89.8179 14.4474C89.9393 14.3182 90 14.1244 90 13.866V0.796651C90 0.523922 89.9358 0.322967 89.8072 0.19378C89.6786 0.0645927 89.4715 0 89.1858 0H88.05C87.7643 0 87.5608 0.0645927 87.4393 0.19378C87.3179 0.322967 87.2572 0.523922 87.2572 0.796651V13.866C87.2572 14.1244 87.3179 14.3182 87.4393 14.4474Z" fill="#186FDA"/>
</svg>
