<svg width="24" height="20" viewBox="0 0 24 20" fill="none" xmlns="http://www.w3.org/2000/svg">
<path fill-rule="evenodd" clip-rule="evenodd" d="M18 0C15.854 0 13.3443 2.43284 12 4C10.6557 2.43284 8.146 0 6 0C2.20133 0 0 2.96291 0 6.73388C0 13 12 20 12 20C12 20 24 13 24 7C24 3.22903 21.7987 0 18 0Z" fill="#FF7C8C"/>
</svg>
