<svg width="16" height="16" viewBox="0 0 16 16" fill="none" xmlns="http://www.w3.org/2000/svg">
<path d="M4.77955 3.38128C4.79146 3.46121 4.84795 3.52522 4.89761 3.58897L7.45357 6.88519C7.48289 6.92301 7.53245 6.93772 7.5779 6.92276C7.62846 6.90612 7.66598 6.86006 7.66598 6.80685V5.65446C7.66598 5.48309 7.8065 5.34456 7.98035 5.34456C8.1542 5.34456 8.29472 5.48309 8.29472 5.65446V6.75134C8.29472 6.83703 8.35617 6.91007 8.43789 6.93585C8.51799 6.96111 8.60654 6.93737 8.6563 6.86971L11.0416 3.62685C11.1254 3.51288 11.1823 3.38102 11.1998 3.24064C11.2451 2.8607 11.0184 2.07851 10.2929 1.54207C10.1239 1.43958 9.47825 1.05076 8.90668 0.678595C8.39748 0.347037 7.56328 0.347105 7.05407 0.678649C6.48249 1.0508 5.83684 1.43958 5.66783 1.54207C4.94225 2.07851 4.71559 2.8607 4.76086 3.24064C4.7666 3.2885 4.77268 3.33517 4.77955 3.38128Z" fill="#9397FF"/>
<path d="M2.15583 9.78125C2.30498 9.81011 2.4585 9.79404 2.60268 9.74615L6.38869 8.4887C6.45365 8.46712 6.48739 8.4045 6.48739 8.33604C6.48739 8.24937 6.44341 8.16931 6.36087 8.14289L5.29624 7.80208C5.13119 7.74909 5.04065 7.57462 5.0941 7.41161C5.14754 7.2486 5.32547 7.15997 5.49021 7.21234L6.50808 7.53808C6.61798 7.57325 6.73594 7.52614 6.80663 7.43495C6.88524 7.33354 6.89869 7.19009 6.82006 7.08869L4.39807 3.96519C4.34755 3.89954 4.30119 3.82542 4.2266 3.78939C4.19211 3.77274 4.15706 3.7564 4.12111 3.7402C3.7687 3.58029 2.94379 3.55116 2.20218 4.0656C2.05338 4.19041 1.49315 4.66334 0.964235 5.07985C0.478805 5.46212 0.213049 6.2775 0.378886 6.87271C0.557485 7.51372 0.727267 8.21518 0.773043 8.40143C1.06635 9.24746 1.75106 9.70147 2.13145 9.77646C2.1396 9.77808 2.14773 9.77968 2.15583 9.78125Z" fill="#9397FF"/>
<path d="M6.63578 10.6879C6.57448 10.7719 6.47859 10.8156 6.38114 10.8156C6.31701 10.8156 6.25256 10.7964 6.1966 10.7564C6.05639 10.6563 6.02495 10.4626 6.12712 10.3238L6.77423 9.44593C6.831 9.36892 6.82438 9.26345 6.76876 9.1856C6.71296 9.10751 6.61438 9.06786 6.5233 9.09811L2.64674 10.3857C2.55887 10.4148 2.47883 10.464 2.41564 10.5317C2.15251 10.8128 1.86926 11.577 2.13648 12.4311C2.21118 12.61 2.49639 13.2861 2.73539 13.9128C2.95343 14.4846 3.63716 14.9796 4.24848 15.0067C4.93103 15.037 5.68093 15.0962 5.87814 15.1111C6.78479 15.0975 7.4346 14.5961 7.62448 14.2626C7.70003 14.1297 7.7342 13.9782 7.7342 13.8254V9.97607C7.7342 9.86542 7.65197 9.77266 7.54574 9.74168C7.4447 9.71221 7.33375 9.74135 7.27129 9.82606L6.63578 10.6879Z" fill="#9397FF"/>
<path d="M13.6485 10.4964C13.5471 10.3885 13.4174 10.3123 13.2769 10.2657L9.54142 9.02769C9.42032 8.98755 9.28987 9.04599 9.21761 9.15114C9.14941 9.2504 9.14058 9.38265 9.21203 9.4796L9.83389 10.3234C9.93606 10.462 9.90526 10.6557 9.76442 10.7561C9.70846 10.796 9.64401 10.8149 9.57957 10.8149C9.48211 10.8149 9.38686 10.7703 9.32492 10.6873L8.6525 9.77492C8.61152 9.71932 8.53816 9.69993 8.47236 9.72089C8.4085 9.74123 8.36231 9.79904 8.36231 9.86606V13.9244C8.36231 14.0305 8.38723 14.1356 8.43996 14.2276C8.62985 14.561 9.27965 15.0625 10.1863 15.0761C10.3834 15.0612 11.1339 15.0021 11.8167 14.9719C12.4278 14.9449 13.1107 14.45 13.3286 13.8785C13.5677 13.2516 13.8531 12.5752 13.9277 12.3964C14.1952 11.5417 13.9123 10.7778 13.6485 10.4964Z" fill="#9397FF"/>
<path d="M13.7984 4.01168C13.0572 3.49724 12.2322 3.52637 11.8795 3.68628C11.772 3.73536 11.6808 3.81339 11.6108 3.90857L9.1739 7.2214C9.11943 7.29544 9.12651 7.39713 9.18091 7.47122C9.23385 7.54331 9.32534 7.57943 9.41052 7.55215L10.4708 7.21265C10.6349 7.15966 10.8128 7.24891 10.8669 7.41192C10.9207 7.5743 10.8301 7.7494 10.6648 7.80239L9.59957 8.14357C9.51717 8.16996 9.47362 8.24983 9.47362 8.33635C9.47362 8.34513 9.47736 8.35278 9.4857 8.35555L13.5406 9.69954C13.6464 9.7346 13.7594 9.7451 13.8686 9.72285C14.2493 9.64786 14.934 9.19385 15.2266 8.34751C15.2726 8.16103 15.4426 7.45922 15.6212 6.81811C15.7871 6.22315 15.5217 5.40823 15.0365 5.02604C14.5077 4.6095 13.9474 4.13649 13.7984 4.01168Z" fill="#9397FF"/>
<path d="M8.81124 8.55855C8.81312 8.55204 8.81564 8.54647 8.81721 8.53965C8.83387 8.47395 8.84488 8.40639 8.84488 8.33573C8.84488 8.05496 8.7053 7.80797 8.49247 7.6524C8.48681 7.64837 8.4824 7.64372 8.47706 7.64C8.33591 7.54207 8.16552 7.4835 7.98035 7.4835C7.95929 7.4835 7.93948 7.48815 7.91905 7.4897C7.77381 7.49993 7.63863 7.54362 7.522 7.61614C7.51634 7.61955 7.50974 7.62203 7.50439 7.62575C7.44466 7.6648 7.39216 7.71221 7.34406 7.76427C7.20417 7.91582 7.11646 8.11508 7.11646 8.33604C7.11646 8.41383 7.1306 8.48759 7.15041 8.55917C7.15229 8.56568 7.15449 8.57188 7.15638 8.57839C7.26295 8.93012 7.59021 9.18858 7.98098 9.18858C7.9879 9.18858 7.9945 9.18672 8.00141 9.18641C8.00833 9.18641 8.01462 9.18486 8.02153 9.18455C8.40098 9.16689 8.71441 8.90781 8.81124 8.55855Z" fill="#9397FF"/>
</svg>
