<svg width="24" height="24" viewBox="0 0 24 24" fill="none" xmlns="http://www.w3.org/2000/svg">
<path d="M22.3569 14.1071C21.9749 13.7104 21.5439 13.3774 21.0738 13.108C21.1815 13.015 21.2844 12.917 21.3872 12.8142C22.5234 11.678 23.2238 10.2675 23.4833 8.79338C23.6156 8.05387 22.7144 7.58861 22.1806 8.11753C21.2893 9.00397 20.0502 9.5427 18.6887 9.51331C16.1273 9.45944 14.0361 7.37312 13.9823 4.80685C13.9627 3.44536 14.5014 2.2063 15.3878 1.31496C15.9167 0.781138 15.4515 -0.115097 14.712 0.012237C13.2378 0.271802 11.8274 0.972139 10.6912 2.10835C9.32966 3.46984 8.59504 5.22313 8.4873 7.00581C6.3667 8.05387 4.79951 10.0765 4.39302 12.5057C1.83655 13.1521 0 15.4539 0 18.1622C0 21.3799 2.61524 24 5.83288 24H18.1598C21.3774 24 23.9927 21.3799 23.9927 18.1622C23.9976 16.644 23.4148 15.1993 22.3569 14.1071ZM12.3269 3.34741C12.2339 3.78328 12.1849 4.23875 12.1849 4.704C12.1849 8.35751 15.1429 11.3156 18.7965 11.3156C19.2617 11.3156 19.7172 11.2666 20.1531 11.1736C19.1393 12.2951 17.67 13.0003 16.0392 13.0003C12.9783 13.0003 10.4953 10.5173 10.4953 7.45638C10.4953 5.83042 11.2005 4.36608 12.3269 3.34741ZM18.1598 21.9871H5.83288C3.72697 21.9871 2.00796 20.273 2.00796 18.1622C2.00796 16.2081 3.4723 14.5724 5.41169 14.3618L6.25406 14.2687L6.30793 13.4215C6.41567 11.6731 7.3315 10.1549 8.6783 9.22436C8.99174 10.5369 9.66269 11.7857 10.6863 12.8093C12.9293 15.0523 16.2302 15.5911 18.9826 14.4304C20.7114 14.8075 21.9798 16.3306 21.9798 18.1622C21.9847 20.273 20.2706 21.9871 18.1598 21.9871Z" fill="#B0B9C2"/>
</svg>
