<svg width="14" height="12" viewBox="0 0 14 12" fill="none" xmlns="http://www.w3.org/2000/svg">
<path fill-rule="evenodd" clip-rule="evenodd" d="M10.5 0.166687C9.24817 0.166687 7.78419 1.58585 7 2.50002C6.21581 1.58585 4.75183 0.166687 3.5 0.166687C1.28411 0.166687 0 1.89505 0 4.09478C0 7.75002 7 11.8334 7 11.8334C7 11.8334 14 7.75002 14 4.25002C14 2.05029 12.7159 0.166687 10.5 0.166687Z" fill="#B0B9C2"/>
</svg>
