<svg width="24" height="24" viewBox="0 0 24 24" fill="none" xmlns="http://www.w3.org/2000/svg">
<path d="M0 3.45C0 3.20147 0.201472 3 0.45 3H23.55C23.7985 3 24 3.20147 24 3.45V5.55C24 5.79853 23.7985 6 23.55 6H0.45C0.201472 6 0 5.79853 0 5.55V3.45Z" fill="#B0B9C2"/>
<path d="M0 18.45C0 18.2015 0.201472 18 0.45 18H23.55C23.7985 18 24 18.2015 24 18.45V20.55C24 20.7985 23.7985 21 23.55 21H0.45C0.201472 21 0 20.7985 0 20.55V18.45Z" fill="#B0B9C2"/>
<path d="M0.45 10.5C0.201472 10.5 0 10.7015 0 10.95V13.05C0 13.2985 0.201472 13.5 0.45 13.5H23.55C23.7985 13.5 24 13.2985 24 13.05V10.95C24 10.7015 23.7985 10.5 23.55 10.5H0.45Z" fill="#B0B9C2"/>
</svg>
