<svg width="16" height="14" viewBox="0 0 16 14" fill="none" xmlns="http://www.w3.org/2000/svg">
<path d="M7.51962 6.86726C7.81244 7.03978 8.18893 7.03984 8.4818 6.86741C14.7419 3.18169 11.567 -0.775328 9.15351 0.131774C8.47873 0.385389 7.52264 0.385428 6.84793 0.131628C4.43441 -0.776237 1.25931 3.17899 7.51962 6.86726Z" fill="#64BF7C"/>
<path d="M2.96405 12.0573C3.12308 12.2521 3.20287 12.4996 3.18753 12.7506L3.18642 12.7689C3.15127 13.3441 3.60829 13.8299 4.18456 13.8299H6.44619C6.97602 13.8299 7.4139 13.4166 7.44452 12.8877L7.47978 12.2786C7.58986 11.1366 7.24416 9.99739 6.518 9.10916L4.18623 6.26139C4.10882 6.16677 4.01247 6.08938 3.90339 6.0342C3.7943 5.97902 3.67488 5.94725 3.55279 5.94095C3.4307 5.93464 3.30864 5.95394 3.19445 5.99759C3.08026 6.04125 2.97646 6.1083 2.88971 6.19444C2.73598 6.35542 2.64725 6.56759 2.64062 6.79009C2.63399 7.01258 2.70992 7.22966 2.85379 7.39951L3.97395 8.77115C3.9995 8.80365 4.01782 8.84124 4.02769 8.88139C4.03755 8.92154 4.03874 8.96334 4.03117 9.00398C4.02359 9.04463 4.00744 9.08319 3.98377 9.1171C3.96011 9.151 3.92948 9.17947 3.89394 9.2006C3.83193 9.23413 3.76005 9.24465 3.69103 9.23031C3.622 9.21597 3.56027 9.17768 3.51674 9.12222L2.22839 7.54647C2.13607 7.43367 2.06869 7.30259 2.0307 7.16187C1.9927 7.02114 1.98495 6.87397 2.00795 6.73003L2.56477 3.42342C2.60396 3.18523 2.54693 2.94122 2.40621 2.74509C2.2655 2.54895 2.05264 2.41674 1.81445 2.37755C1.57626 2.33835 1.33226 2.39539 1.13612 2.5361C0.939982 2.67681 0.807774 2.88967 0.768581 3.12786L0.0305124 7.29338C-0.0212254 7.59817 -0.00704177 7.91052 0.0721079 8.20937C0.151258 8.50822 0.293535 8.78665 0.489356 9.02588L2.96405 12.0573Z" fill="#64BF7C"/>
<path d="M14.1861 2.38161C13.9488 2.42088 13.7367 2.55253 13.5963 2.74777C13.4558 2.94301 13.3984 3.18594 13.4366 3.4234L13.9934 6.73001C14.0164 6.87395 14.0087 7.02113 13.9707 7.16185C13.9327 7.30258 13.8653 7.43366 13.773 7.54646L12.4846 9.1222C12.4411 9.17766 12.3794 9.21595 12.3103 9.23029C12.2413 9.24464 12.1694 9.23411 12.1074 9.20058C12.0711 9.17952 12.0398 9.15085 12.0156 9.11654C11.9915 9.08223 11.975 9.0431 11.9674 9.00183C11.9598 8.96055 11.9612 8.91813 11.9716 8.87746C11.9819 8.83679 12.001 8.79884 12.0274 8.76623L13.1476 7.3946C13.2914 7.22475 13.3674 7.00767 13.3607 6.78517C13.3541 6.56268 13.2654 6.3505 13.1116 6.18952C13.0249 6.10338 12.9211 6.03633 12.8069 5.99268C12.6927 5.94902 12.5707 5.92973 12.4486 5.93603C12.3265 5.94234 12.2071 5.9741 12.098 6.02928C11.9889 6.08447 11.8925 6.16185 11.8151 6.25647L9.48335 9.11077C8.75719 9.99901 8.4115 11.1382 8.52157 12.2802L8.55683 12.8893C8.58746 13.4182 9.02533 13.8315 9.55516 13.8315H11.8168C12.3931 13.8315 12.8501 13.3457 12.8149 12.7705L12.8138 12.7521C12.7985 12.5012 12.8782 12.2537 13.0371 12.0589L15.512 9.02586C15.7075 8.7865 15.8495 8.50801 15.9284 8.20917C16.0072 7.91032 16.0212 7.59804 15.9692 7.29336L15.2311 3.12621C15.1908 2.88916 15.0581 2.67774 14.8623 2.5382C14.6665 2.39867 14.4233 2.34236 14.1861 2.38161Z" fill="#64BF7C"/>
</svg>
