<svg width="39" height="52" viewBox="0 0 39 52" fill="none" xmlns="http://www.w3.org/2000/svg">
<path d="M1 19.3837C1 9.24603 9.24604 1 19.3838 1C29.5215 1 37.7674 9.24604 37.7676 19.3837C37.7676 22.5567 36.7356 26.0259 35.2411 29.4056C33.7411 32.7977 31.7428 36.1712 29.7379 39.1721C25.7282 45.1736 21.6382 49.7639 21.2926 50.1488C20.2747 51.2826 18.495 51.2848 17.4751 50.1489L1 19.3837ZM1 19.3837C1 22.5567 2.03203 26.0259 3.52653 29.4056M1 19.3837L3.52653 29.4056M3.52653 29.4056C5.0265 32.7977 7.02476 36.1712 9.0297 39.1721M3.52653 29.4056L9.0297 39.1721M9.0297 39.1721C13.0394 45.1737 17.1295 49.764 17.4751 50.1489L9.0297 39.1721ZM19.3838 27.1299C15.1134 27.1299 11.6377 23.6541 11.6377 19.3837C11.6377 15.1133 15.1135 11.6376 19.3838 11.6376C23.6541 11.6376 27.1298 15.1134 27.1298 19.3838C27.1298 23.6542 23.6541 27.1299 19.3838 27.1299Z" stroke="white" stroke-width="2"/>
<path d="M19.3838 2C9.79832 2 2 9.79832 2 19.3837C2 31.2795 17.5568 48.7431 18.2191 49.4808C18.8413 50.1737 19.9275 50.1725 20.5485 49.4808C21.2108 48.7431 36.7676 31.2795 36.7676 19.3837C36.7674 9.79832 28.9692 2 19.3838 2ZM19.3838 28.1299C14.5611 28.1299 10.6377 24.2064 10.6377 19.3837C10.6377 14.561 14.5612 10.6376 19.3838 10.6376C24.2064 10.6376 28.1298 14.5611 28.1298 19.3838C28.1298 24.2065 24.2064 28.1299 19.3838 28.1299Z" fill="#186FDA"/>
</svg>
