<svg width="64" height="64" viewBox="0 0 64 64" fill="none" xmlns="http://www.w3.org/2000/svg">
<path d="M16.6178 17.0001H12.6718C11.474 17.0001 10.503 16.0304 10.503 14.8327V2.16816C10.503 0.970329 11.474 0 12.6718 0H16.6178C17.8155 0 18.7866 0.970329 18.7866 2.16816V14.8327C18.7866 16.0304 17.8155 17.0001 16.6178 17.0001Z" fill="#B0B9C2"/>
<path d="M47.3283 17.0001H51.2742C52.4711 17.0001 53.4423 16.0304 53.4423 14.8327V2.16816C53.4424 0.970329 52.4713 0 51.2742 0H47.3283C46.1307 0 45.1596 0.970329 45.1596 2.16816V14.8327C45.1596 16.0304 46.1307 17.0001 47.3283 17.0001Z" fill="#B0B9C2"/>
<path d="M23.3636 35.2326C23.3636 34.4326 22.7147 33.7845 21.9141 33.7845H16.8557C16.056 33.7845 15.407 34.4326 15.407 35.2326V40.2903C15.407 41.0913 16.056 41.7397 16.8557 41.7397H21.9141C22.7147 41.7397 23.3636 41.0913 23.3636 40.2903V35.2326Z" fill="#B0B9C2"/>
<path d="M36.0051 35.2326C36.0051 34.4326 35.3561 33.7845 34.557 33.7845H29.498C28.6983 33.7845 28.0493 34.4326 28.0493 35.2326V40.2903C28.0493 41.0913 28.6983 41.7397 29.498 41.7397H34.557C35.3561 41.7397 36.0051 41.0913 36.0051 40.2903V35.2326Z" fill="#B0B9C2"/>
<path d="M47.1985 33.7845C47.9982 33.7845 48.6473 34.4326 48.6473 35.2326V40.2903C48.6473 41.0913 47.9982 41.7397 47.1985 41.7397H42.1402C41.3395 41.7397 40.6906 41.0913 40.6906 40.2903V35.2326C40.6906 34.4326 41.3395 33.7845 42.1402 33.7845H47.1985Z" fill="#B0B9C2"/>
<path d="M23.3636 47.8754C23.3636 47.0741 22.7147 46.4265 21.9141 46.4265H16.8557C16.056 46.4265 15.407 47.0741 15.407 47.8754V52.9322C15.407 53.7327 16.056 54.3809 16.8557 54.3809H21.9141C22.7147 54.3809 23.3636 53.7326 23.3636 52.9322V47.8754Z" fill="#B0B9C2"/>
<path d="M34.557 46.4265C35.3561 46.4265 36.0051 47.0741 36.0051 47.8754V52.9322C36.0051 53.7326 35.3561 54.3809 34.557 54.3809H29.498C28.6983 54.3809 28.0493 53.7327 28.0493 52.9322V47.8754C28.0493 47.0741 28.6983 46.4265 29.498 46.4265H34.557Z" fill="#B0B9C2"/>
<path d="M48.6473 47.8754C48.6473 47.0741 47.9982 46.4265 47.1992 46.4265H42.1402C41.3395 46.4265 40.6906 47.0741 40.6906 47.8754V52.9322C40.6906 53.7327 41.3395 54.3809 42.1402 54.3809H47.1992C47.9982 54.3809 48.6473 53.7326 48.6473 52.9322V47.8754Z" fill="#B0B9C2"/>
<path fill-rule="evenodd" clip-rule="evenodd" d="M58.3034 5.77843V13.6958C58.3034 17.2744 55.4003 20.1581 51.8223 20.1581H47.7338C44.1555 20.1581 41.2139 17.2744 41.2139 13.6958V5.75H22.7861V13.6958C22.7861 17.2744 19.8447 20.1581 16.2669 20.1581H12.1776C8.5997 20.1581 5.69675 17.2744 5.69675 13.6958V5.77843C2.56963 5.87268 0 8.46027 0 11.6408V58.0403C0 61.2806 2.62634 63.9418 5.86663 63.9418H58.1334C61.3688 63.9418 64 61.2751 64 58.0403V11.6408C64 8.46027 61.4305 5.87268 58.3034 5.77843ZM56.4044 55.1509C56.4044 56.5512 55.269 57.6873 53.8682 57.6873H10.0201C8.61928 57.6873 7.4839 56.5512 7.4839 55.1509V31.1839C7.4839 29.783 8.61914 28.647 10.0201 28.647H53.868C55.2689 28.647 56.4043 29.783 56.4043 31.1839L56.4044 55.1509Z" fill="#B0B9C2"/>
</svg>
