<svg width="24" height="24" viewBox="0 0 24 24" fill="none" xmlns="http://www.w3.org/2000/svg">
<path fill-rule="evenodd" clip-rule="evenodd" d="M17.6982 15.9099L23.4068 21.8472C23.8897 22.3495 23.8737 23.1503 23.3719 23.6333C23.1356 23.8606 22.8245 23.9857 22.4965 23.9857C22.15 23.9857 21.8266 23.848 21.5862 23.5983L15.8342 17.616C14.2009 18.7638 12.2906 19.3684 10.286 19.3684C4.94617 19.3684 0.601746 15.024 0.601746 9.68421C0.601746 4.34442 4.94617 0 10.286 0C15.6257 0 19.9702 4.34442 19.9702 9.68421C19.9702 11.9697 19.166 14.1651 17.6982 15.9099ZM17.4439 9.6842C17.4439 5.73725 14.233 2.5263 10.286 2.5263C6.33907 2.5263 3.12812 5.73725 3.12812 9.6842C3.12812 13.6311 6.33907 16.8421 10.286 16.8421C14.233 16.8421 17.4439 13.6311 17.4439 9.6842Z" fill="#B0B9C2"/>
</svg>
