<svg width="14" height="14" viewBox="0 0 14 14" fill="none" xmlns="http://www.w3.org/2000/svg">
<g id="Icons / Regular 12x12 / Search">
<path id="Shape" fill-rule="evenodd" clip-rule="evenodd" d="M10.324 9.28077L13.654 12.7442C13.9357 13.0372 13.9264 13.5044 13.6336 13.7861C13.4958 13.9187 13.3143 13.9916 13.123 13.9916C12.9209 13.9916 12.7322 13.9113 12.592 13.7657L9.23665 10.276C8.28392 10.9455 7.16957 11.2982 6.0002 11.2982C2.88532 11.2982 0.351074 8.764 0.351074 5.64912C0.351074 2.53425 2.88532 0 6.0002 0C9.11508 0 11.6493 2.53425 11.6493 5.64912C11.6493 6.98232 11.1802 8.26295 10.324 9.28077ZM10.1757 5.64909C10.1757 3.3467 8.30263 1.47365 6.00024 1.47365C3.69785 1.47365 1.8248 3.3467 1.8248 5.64909C1.8248 7.95148 3.69785 9.82453 6.00024 9.82453C8.30263 9.82453 10.1757 7.95148 10.1757 5.64909Z" fill="#B0B9C2"/>
</g>
</svg>
