<svg width="8" height="6" viewBox="0 0 8 6" fill="none" xmlns="http://www.w3.org/2000/svg">
<path d="M2.85714 5.94286L0 3.08571L0.8 2.28571L2.85714 4.34286L7.2 0L8 0.8L2.85714 5.94286Z" fill="white"/>
</svg>
